INFO: [VRFC 10-163] Analyzing VHDL file "C:/Users/dmitr/YandexDisk/DATA/Vivado/FIT_fpga/FIT_Readout_GBT_IPBUS/FIT_Readout_GBT_IPBUS.srcs/FIT_GBT_Readout/fit_gbt_common_package.vhd" into library xil_defaultlib
INFO: [VRFC 10-163] Analyzing VHDL file "C:/Users/dmitr/YandexDisk/DATA/Vivado/FIT_fpga/FIT_Readout_GBT_IPBUS/FIT_Readout_GBT_IPBUS.srcs/FIT_GBT_Readout/BC_counter.vhd" into library xil_defaultlib
INFO: [VRFC 10-307] analyzing entity BC_counter
INFO: [VRFC 10-163] Analyzing VHDL file "C:/Users/dmitr/YandexDisk/DATA/Vivado/FIT_fpga/FIT_Readout_GBT_IPBUS/FIT_Readout_GBT_IPBUS.srcs/FIT_GBT_Readout/fit_gbt_boardTCM_package.vhd" into library xil_defaultlib
INFO: [VRFC 10-163] Analyzing VHDL file "C:/Users/dmitr/YandexDisk/DATA/Vivado/FIT_fpga/FIT_Readout_GBT_IPBUS/FIT_Readout_GBT_IPBUS.srcs/FIT_GBT_Readout/CRU_packet_Builder.vhd" into library xil_defaultlib
INFO: [VRFC 10-307] analyzing entity CRU_packet_Builder
INFO: [VRFC 10-163] Analyzing VHDL file "C:/Users/dmitr/YandexDisk/DATA/Vivado/FIT_fpga/FIT_Readout_GBT_IPBUS/FIT_Readout_GBT_IPBUS.srcs/FIT_GBT_Readout/DataCLK_strobe.vhd" into library xil_defaultlib
INFO: [VRFC 10-307] analyzing entity DataCLK_strobe
INFO: [VRFC 10-163] Analyzing VHDL file "C:/Users/dmitr/YandexDisk/DATA/Vivado/FIT_fpga/FIT_Readout_GBT_IPBUS/FIT_Readout_GBT_IPBUS.srcs/FIT_GBT_Readout/DataConverter_TCM.vhd" into library xil_defaultlib
INFO: [VRFC 10-307] analyzing entity DataConverter_TCM
INFO: [VRFC 10-163] Analyzing VHDL file "C:/Users/dmitr/YandexDisk/DATA/Vivado/FIT_fpga/FIT_Readout_GBT_IPBUS/FIT_Readout_GBT_IPBUS.srcs/FIT_GBT_Readout/TX_Data_Gen.vhd" into library xil_defaultlib
INFO: [VRFC 10-307] analyzing entity TX_Data_Gen
INFO: [VRFC 10-163] Analyzing VHDL file "C:/Users/dmitr/YandexDisk/DATA/Vivado/FIT_fpga/FIT_Readout_GBT_IPBUS/FIT_Readout_GBT_IPBUS.srcs/FIT_GBT_Readout/Data_Packager.vhd" into library xil_defaultlib
INFO: [VRFC 10-307] analyzing entity Data_Packager
INFO: [VRFC 10-163] Analyzing VHDL file "C:/Users/dmitr/YandexDisk/DATA/Vivado/FIT_fpga/FIT_Readout_GBT_IPBUS/FIT_Readout_GBT_IPBUS.srcs/FIT_GBT_Readout/Reset_Generator.vhd" into library xil_defaultlib
INFO: [VRFC 10-307] analyzing entity Reset_Generator
INFO: [VRFC 10-163] Analyzing VHDL file "C:/Users/dmitr/YandexDisk/DATA/Vivado/FIT_fpga/FIT_Readout_GBT_IPBUS/FIT_Readout_GBT_IPBUS.srcs/FIT_GBT_Readout/RXDataClkSync.vhd" into library xil_defaultlib
INFO: [VRFC 10-307] analyzing entity RXDATA_CLKSync
INFO: [VRFC 10-163] Analyzing VHDL file "C:/Users/dmitr/YandexDisk/DATA/Vivado/FIT_fpga/FIT_Readout_GBT_IPBUS/FIT_Readout_GBT_IPBUS.srcs/FIT_GBT_Readout/RX_Data_Decoder.vhd" into library xil_defaultlib
INFO: [VRFC 10-307] analyzing entity RX_Data_Decoder
INFO: [VRFC 10-163] Analyzing VHDL file "C:/Users/dmitr/YandexDisk/DATA/Vivado/FIT_fpga/FIT_Readout_GBT_IPBUS/FIT_Readout_GBT_IPBUS.srcs/FIT_GBT_Readout/MAIN_Data_Gen.vhd" into library xil_defaultlib
INFO: [VRFC 10-307] analyzing entity MAIN_Data_Gen
INFO: [VRFC 10-163] Analyzing VHDL file "C:/Users/dmitr/YandexDisk/DATA/Vivado/FIT_fpga/FIT_Readout_GBT_IPBUS/FIT_Readout_GBT_IPBUS.srcs/FIT_GBT_Readout/FIT_GBT_project.vhd" into library xil_defaultlib
INFO: [VRFC 10-307] analyzing entity FIT_GBT_project
WARNING: [VRFC 10-280] actual for formal port rx_data_rxclk_i is neither a static name nor a globally static expression [C:/Users/dmitr/YandexDisk/DATA/Vivado/FIT_fpga/FIT_Readout_GBT_IPBUS/FIT_Readout_GBT_IPBUS.srcs/FIT_GBT_Readout/FIT_GBT_project.vhd:178]
INFO: [VRFC 10-163] Analyzing VHDL file "C:/Users/dmitr/YandexDisk/DATA/Vivado/FIT_fpga/FIT_Readout_GBT_IPBUS/FIT_Readout_GBT_IPBUS.srcs/sim_1/testbench_DataPackager.vhd" into library xil_defaultlib
INFO: [VRFC 10-307] analyzing entity testbench_DataPackager
