xpm_cdc.sv,systemverilog,xil_defaultlib,../../../../../../../../../../Xilinx/Vivado/2018.1/data/ip/xpm/xpm_cdc/hdl/xpm_cdc.sv,
xpm_memory.sv,systemverilog,xil_defaultlib,../../../../../../../../../../Xilinx/Vivado/2018.1/data/ip/xpm/xpm_memory/hdl/xpm_memory.sv,
xpm_VCOMP.vhd,vhdl,xpm,../../../../../../../../../../Xilinx/Vivado/2018.1/data/ip/xpm/xpm_VCOMP.vhd,
blk_mem_gen_v8_4.v,verilog,blk_mem_gen_v8_4_1,../../../ipstatic/simulation/blk_mem_gen_v8_4.v,
xlx_k7v7_tx_dpram.v,verilog,xil_defaultlib,../../../ip/tx_dpram/sim/xlx_k7v7_tx_dpram.v,
glbl.v,Verilog,xil_defaultlib,glbl.v
