Design Route Status
                                               :      # nets :
   ------------------------------------------- : ----------- :
   # of logical nets.......................... :       17005 :
       # of nets not needing routing.......... :        4578 :
           # of internally routed nets........ :        4565 :
           # of nets with no loads............ :          13 :
       # of routable nets..................... :       12427 :
           # of fully routed nets............. :       12427 :
       # of nets with routing errors.......... :           0 :
   ------------------------------------------- : ----------- :

